3er año/1er cuatri/electronica/Electronica Digital Bargas/Trabajo integrador electronica/TPCONDEBOUNCER/div_tb.vcd
$date
	Sat Jul 01 17:58:59 2023
$end
$version
	Icarus Verilog
$end
$timescale
	1ps
$end
$scope module div_tb $end
$var wire 4 ! test_resto [3:0] $end
$var wire 1 " test_finish $end
$var wire 4 # test_cociente [3:0] $end
$var reg 1 $ clk $end
$var reg 4 % test_denominador [3:0] $end
$var reg 4 & test_numerador [3:0] $end
$var reg 1 ' test_rst $end
$var reg 1 ( test_start $end
$scope module UUT $end
$var wire 1 $ clk $end
$var wire 4 ) cociente [3:0] $end
$var wire 4 * denominador [3:0] $end
$var wire 1 " finish $end
$var wire 4 + numerador [3:0] $end
$var wire 4 , resto [3:0] $end
$var wire 1 ' rst $end
$var wire 1 ( start $end
$var reg 4 - cociente_next [3:0] $end
$var reg 4 . cociente_reg [3:0] $end
$var reg 4 / denominador_next [3:0] $end
$var reg 4 0 denominador_reg [3:0] $end
$var reg 1 1 finish_next $end
$var reg 1 2 finish_reg $end
$var reg 4 3 numerador_next [3:0] $end
$var reg 4 4 numerador_reg [3:0] $end
$var reg 4 5 resto_next [3:0] $end
$var reg 4 6 resto_reg [3:0] $end
$var reg 2 7 state_next [1:0] $end
$var reg 2 8 state_reg [1:0] $end
$upscope $end
$upscope $end
$scope module top_tb $end
$var wire 4 9 LED [3:0] $end
$var reg 4 : BUT [3:0] $end
$var reg 1 ; clk $end
$scope module UUT $end
$var wire 1 < BTN0 $end
$var wire 1 = BTN1 $end
$var wire 1 > BTN2 $end
$var wire 1 ? BTN3 $end
$var wire 1 @ GND $end
$var wire 1 ; clk $end
$var wire 2 A sel [1:0] $end
$var wire 1 B start $end
$var wire 1 C xBTN0 $end
$var wire 1 D xBTN1 $end
$var wire 1 E xBTN2 $end
$var wire 1 F xBTN3 $end
$var wire 4 G resto [3:0] $end
$var wire 1 H finish $end
$var wire 4 I count_exi_num [3:0] $end
$var wire 4 J count_exi_deno [3:0] $end
$var wire 4 K cociente [3:0] $end
$var wire 1 L LED3 $end
$var wire 1 M LED2 $end
$var wire 1 N LED1 $end
$var wire 1 O LED0 $end
$var wire 1 P BTNE3 $end
$var wire 1 Q BTNE2 $end
$var wire 1 R BTNE1 $end
$var wire 1 S BTNE0 $end
$var wire 1 T BTND3 $end
$var wire 1 U BTND2 $end
$var wire 1 V BTND1 $end
$var wire 1 W BTND0 $end
$var reg 2 X sel_next [1:0] $end
$var reg 2 Y sel_reg [1:0] $end
$var reg 1 Z start_next $end
$var reg 1 [ start_reg $end
$var reg 3 \ state_next [2:0] $end
$var reg 3 ] state_reg [2:0] $end
$scope module cont_module_denominador $end
$var wire 1 ; clk $end
$var wire 4 ^ count [3:0] $end
$var wire 1 R up $end
$var wire 1 P reset $end
$var wire 1 Q down $end
$var reg 4 _ count_reg [3:0] $end
$upscope $end
$scope module cont_module_numerador $end
$var wire 1 ; clk $end
$var wire 4 ` count [3:0] $end
$var wire 1 R up $end
$var wire 1 P reset $end
$var wire 1 Q down $end
$var reg 4 a count_reg [3:0] $end
$upscope $end
$scope module debouncing0 $end
$var wire 1 ; clk $end
$var wire 1 @ reset $end
$var wire 1 C sw $end
$var wire 19 b q_next [18:0] $end
$var wire 1 c m_tick $end
$var reg 1 W db $end
$var reg 19 d q_reg [18:0] $end
$var reg 3 e state_next [2:0] $end
$var reg 3 f state_reg [2:0] $end
$upscope $end
$scope module debouncing1 $end
$var wire 1 ; clk $end
$var wire 1 @ reset $end
$var wire 1 D sw $end
$var wire 19 g q_next [18:0] $end
$var wire 1 h m_tick $end
$var reg 1 V db $end
$var reg 19 i q_reg [18:0] $end
$var reg 3 j state_next [2:0] $end
$var reg 3 k state_reg [2:0] $end
$upscope $end
$scope module debouncing2 $end
$var wire 1 ; clk $end
$var wire 1 @ reset $end
$var wire 1 E sw $end
$var wire 19 l q_next [18:0] $end
$var wire 1 m m_tick $end
$var reg 1 U db $end
$var reg 19 n q_reg [18:0] $end
$var reg 3 o state_next [2:0] $end
$var reg 3 p state_reg [2:0] $end
$upscope $end
$scope module debouncing3 $end
$var wire 1 ; clk $end
$var wire 1 @ reset $end
$var wire 1 F sw $end
$var wire 19 q q_next [18:0] $end
$var wire 1 r m_tick $end
$var reg 1 T db $end
$var reg 19 s q_reg [18:0] $end
$var reg 3 t state_next [2:0] $end
$var reg 3 u state_reg [2:0] $end
$upscope $end
$scope module div_module $end
$var wire 1 ; clk $end
$var wire 4 v cociente [3:0] $end
$var wire 4 w denominador [3:0] $end
$var wire 1 H finish $end
$var wire 4 x numerador [3:0] $end
$var wire 4 y resto [3:0] $end
$var wire 1 B start $end
$var wire 1 P rst $end
$var reg 4 z cociente_next [3:0] $end
$var reg 4 { cociente_reg [3:0] $end
$var reg 4 | denominador_next [3:0] $end
$var reg 4 } denominador_reg [3:0] $end
$var reg 1 ~ finish_next $end
$var reg 1 !" finish_reg $end
$var reg 4 "" numerador_next [3:0] $end
$var reg 4 #" numerador_reg [3:0] $end
$var reg 4 $" resto_next [3:0] $end
$var reg 4 %" resto_reg [3:0] $end
$var reg 2 &" state_next [1:0] $end
$var reg 2 '" state_reg [1:0] $end
$upscope $end
$scope module ed0 $end
$var wire 1 ; clk $end
$var wire 1 < level $end
$var wire 1 @ reset $end
$var wire 1 S tick $end
$var reg 1 (" delay_reg $end
$upscope $end
$scope module ed1 $end
$var wire 1 ; clk $end
$var wire 1 = level $end
$var wire 1 @ reset $end
$var wire 1 R tick $end
$var reg 1 )" delay_reg $end
$upscope $end
$scope module ed2 $end
$var wire 1 ; clk $end
$var wire 1 > level $end
$var wire 1 @ reset $end
$var wire 1 Q tick $end
$var reg 1 *" delay_reg $end
$upscope $end
$scope module ed3 $end
$var wire 1 ; clk $end
$var wire 1 ? level $end
$var wire 1 @ reset $end
$var wire 1 P tick $end
$var reg 1 +" delay_reg $end
$upscope $end
$scope module multiplexor_leds $end
$var wire 2 ," Sel [1:0] $end
$var wire 4 -" cociente [3:0] $end
$var wire 4 ." conta_den [3:0] $end
$var wire 4 /" conta_num [3:0] $end
$var wire 4 0" resto [3:0] $end
$var reg 1 O LED0 $end
$var reg 1 N LED1 $end
$var reg 1 M LED2 $end
$var reg 1 L LED3 $end
$upscope $end
$upscope $end
$upscope $end
$enddefinitions $end
#0
$dumpvars
b1111 0"
b1 /"
b10 ."
b110 -"
bx ,"
x+"
x*"
x)"
x("
bx '"
bx &"
bx %"
bx $"
bx #"
bx ""
x!"
0~
bx }
bx |
bx {
bx z
bx y
b0 x
b0 w
bx v
bx u
b0 t
bx s
xr
bx q
bx p
b0 o
bx n
xm
bx l
bx k
b0 j
bx i
xh
bx g
bx f
b0 e
bx d
xc
bx b
b0 a
b0 `
b0 _
b0 ^
bx ]
bx \
x[
xZ
bx Y
bx X
0W
0V
0U
0T
xS
xR
xQ
xP
1O
0N
0M
0L
bx K
b0 J
b0 I
xH
bx G
0F
0E
0D
0C
xB
bx A
0@
1?
1>
1=
1<
0;
b0 :
b1 9
bx 8
bx 7
bx 6
bx 5
bx 4
bx 3
x2
01
bx 0
bx /
bx .
bx -
bx ,
b0 +
b0 *
bx )
0(
0'
b0 &
b0 %
0$
bx #
x"
bx !
$end
#100000
0P
0Q
0R
0S
b0 5
b0 -
b0 /
b0 3
b0 7
b0 u
b0 p
b0 k
b0 f
1+"
1*"
1)"
1("
0H
0!"
0"
02
b0 !
b0 ,
b0 6
b0 #
b0 )
b0 .
b0 0
b0 4
b0 8
1;
1'
1$
#200000
0;
0'
0$
#300000
1;
1$
#400000
0;
0$
#500000
1;
1$
#600000
0;
0$
#700000
1;
1$
#800000
0;
0$
#900000
1;
1$
#1000000
0?
b1 t
1F
0;
0$
b1000 :
#1100000
0+"
b1 u
1;
1$
#1200000
b1000 5
b10 /
b1000 3
b1 7
0;
0$
1(
b10 %
b10 *
b1000 &
b1000 +
#1300000
b0 X
b0 $"
b0 z
b0 |
b0 ""
b0 &"
b10 7
b0 A
b0 ,"
b0 Y
xZ
bx \
b0 G
b0 y
b0 %"
b0 K
b0 v
b0 {
b0 }
b0 #"
b0 '"
b1000 !
b1000 ,
b1000 6
b10 0
b1000 4
b1 8
1P
1?
b0 t
0F
1;
1$
b0 :
#1400000
0;
0$
#1500000
0P
b110 5
b1 -
b110 3
b1 7
1+"
b0 u
0Z
b0 \
b10 8
1;
1$
#1600000
0;
0$
#1700000
b10 7
0B
0[
b0 ]
b110 !
b110 ,
b110 6
b1 #
b1 )
b1 .
b110 4
b1 8
1;
1$
#1800000
0;
0$
#1900000
b100 5
b10 -
b100 3
b1 7
b10 8
1;
1$
#2000000
0;
0$
#2100000
b10 7
b100 !
b100 ,
b100 6
b10 #
b10 )
b10 .
b100 4
b1 8
1;
1$
#2200000
0;
0$
#2300000
b10 5
b11 -
b10 3
b1 7
b10 8
0<
b1 e
1C
1;
1$
b1 :
#2400000
0;
0$
#2500000
b10 7
b1 f
0("
b10 !
b10 ,
b10 6
b11 #
b11 )
b11 .
b10 4
b1 8
1;
1$
#2600000
b1 \
1S
1<
b0 e
0C
0;
0$
b0 :
#2700000
0S
b1 \
b1 X
b0 5
b100 -
b0 3
b1 7
1("
b0 f
b1 ]
b10 8
1;
1$
#2800000
0;
0$
#2900000
1N
b10 9
0O
b11 7
b1 A
b1 ,"
b1 Y
b0 !
b0 ,
b0 6
b100 #
b100 )
b100 .
b0 4
b1 8
1;
1$
#3000000
0;
0$
#3100000
11
b0 7
b11 8
1;
1$
#3200000
0;
0$
#3300000
b1000 5
b0 -
b1000 3
b1 7
01
1"
12
b0 8
1;
1$
#3400000
0;
0$
#3500000
b10 7
0"
02
b1000 !
b1000 ,
b1000 6
b0 #
b0 )
b0 .
b1000 4
b1 8
1;
1$
#3600000
0<
b1 e
1C
0;
0$
b1 :
#3700000
b110 5
b1 -
b110 3
b1 7
b1 f
0("
b10 8
1;
1$
#3800000
0;
0$
#3900000
b10 7
b110 !
b110 ,
b110 6
b1 #
b1 )
b1 .
b110 4
b1 8
b10 \
1S
1<
b0 e
0C
1;
1$
b0 :
#4000000
0;
0$
#4100000
0S
b11 \
b100 5
b10 -
b100 3
b1 7
b0 f
1("
b10 ]
b10 8
1;
1$
#4200000
b100 5
b10 -
b100 3
b1 7
0;
0$
0(
#4300000
b10 X
b10 7
b11 ]
b100 !
b100 ,
b100 6
b10 #
b10 )
b10 .
b100 4
b1 8
1;
1$
#4400000
0;
0$
#4500000
b110 9
1M
b10 5
b11 -
b10 3
b1 7
b10 A
b10 ,"
b10 Y
b10 8
1;
1$
#4600000
0;
0$
#4700000
b10 7
b10 !
b10 ,
b10 6
b11 #
b11 )
b11 .
b10 4
b1 8
1;
1$
#4800000
0;
0$
#4900000
b0 5
b100 -
b0 3
b1 7
b10 8
1;
1$
#5000000
0;
0$
#5100000
b11 7
b0 !
b0 ,
b0 6
b100 #
b100 )
b100 .
b0 4
b1 8
1;
1$
#5200000
0;
0$
#5300000
11
b0 7
b11 8
1;
1$
#5400000
0;
0$
#5500000
01
1"
12
b0 8
1;
1$
#5600000
0;
0$
#5700000
0"
02
1;
1$
#5800000
0;
0$
#5900000
1;
1$
#6000000
0;
0$
#6100000
1;
1$
#6200000
0;
0$
#6300000
1;
1$
#6400000
0;
0$
#6500000
1;
1$
#6600000
0;
0$
#6700000
1;
1$
#6800000
0;
0$
#6900000
0<
b1 e
1C
1;
1$
b1 :
#7000000
0;
0$
#7100000
0("
b1 f
1;
1$
#7200000
b0 -
b0 /
b0 #
b0 )
b0 .
b0 0
b100 \
1S
1<
b0 e
0C
0;
0$
b0 :
1'
#7300000
0S
b100 \
b11 X
b0 f
1("
b100 ]
1;
1$
#7400000
0;
0$
#7500000
1L
b1111 9
1O
b11 A
b11 ,"
b11 Y
1;
1$
#7600000
0;
0$
#7700000
1;
1$
#7800000
0;
0$
#7900000
1;
1$
#8000000
0;
0$
#8100000
1;
1$
#8200000
0;
0$
#8300000
1;
1$
#8400000
0;
0$
#8500000
1;
1$
#8600000
0;
0$
#8700000
1;
1$
#8800000
0;
0$
#8900000
1;
1$
#9000000
0;
0$
#9100000
1;
1$
#9200000
0;
0$
#9300000
1;
1$
#9400000
0;
0$
#9500000
1;
1$
#9600000
0;
0$
#9700000
1;
1$
#9800000
0;
0$
#9900000
1;
1$
#10000000
0;
0$
#10100000
1;
1$
#10200000
0<
b1 e
1C
0;
0$
b1 :
0'
#10300000
0("
b1 f
1;
1$
#10400000
0;
0$
#10500000
b0 \
1S
1<
b0 e
0C
1;
1$
b0 :
#10600000
0;
0$
#10700000
0S
b0 \
b0 X
1("
b0 f
b0 ]
1;
1$
#10800000
0;
0$
#10900000
0L
0M
b1 9
0N
b0 A
b0 ,"
b0 Y
1;
1$
#11000000
0;
0$
#11100000
1;
1$
#11200000
0;
0$
#11300000
1;
1$
#11400000
0;
0$
#11500000
1;
1$
#11600000
0;
0$
#11700000
1;
1$
#11800000
0;
0$
#11900000
1;
1$
#12000000
0;
0$
#12100000
1;
1$
#12200000
0;
0$
#12300000
1;
1$
#12400000
0;
0$
#12500000
0<
b1 e
1C
1;
1$
b1 :
#12600000
0;
0$
#12700000
0("
b1 f
1;
1$
#12800000
b1 \
1S
1<
b0 e
0C
0;
0$
b0 :
#12900000
0S
b1 \
b1 X
b0 f
1("
b1 ]
1;
1$
#13000000
0;
0$
#13100000
1N
b10 9
0O
b1 A
b1 ,"
b1 Y
1;
1$
#13200000
b1000 5
b1000 3
b1 7
0;
0$
1(
b0 %
b0 *
#13300000
b1111 5
b1111 -
b11 7
b1000 !
b1000 ,
b1000 6
b1000 4
b1 8
1;
1$
#13400000
0;
0$
#13500000
11
b0 7
b1111 !
b1111 ,
b1111 6
b1111 #
b1111 )
b1111 .
b11 8
1;
1$
#13600000
0;
0$
#13700000
b1000 5
b0 -
b1 7
01
1"
12
b0 8
1;
1$
#13800000
0;
0$
#13900000
b1111 5
b1111 -
b11 7
0"
02
b1000 !
b1000 ,
b1000 6
b0 #
b0 )
b0 .
b1 8
1;
1$
#14000000
0;
0$
#14100000
11
b0 7
b1111 !
b1111 ,
b1111 6
b1111 #
b1111 )
b1111 .
b11 8
1;
1$
#14200000
0;
0$
#14300000
b1000 5
b0 -
b1 7
01
1"
12
b0 8
1;
1$
#14400000
0;
0$
#14500000
b1111 5
b1111 -
b11 7
0"
02
b1000 !
b1000 ,
b1000 6
b0 #
b0 )
b0 .
b1 8
1;
1$
#14600000
0;
0$
#14700000
11
b0 7
b1111 !
b1111 ,
b1111 6
b1111 #
b1111 )
b1111 .
b11 8
1;
1$
#14800000
0;
0$
#14900000
b1000 5
b0 -
b1 7
01
1"
12
b0 8
1;
1$
#15000000
0;
0$
#15100000
b1111 5
b1111 -
b11 7
0"
02
b1000 !
b1000 ,
b1000 6
b0 #
b0 )
b0 .
b1 8
1;
1$
#15200000
0;
0$
#15300000
11
b0 7
b1111 !
b1111 ,
b1111 6
b1111 #
b1111 )
b1111 .
b11 8
1;
1$
#15400000
0;
0$
#15500000
b1000 5
b0 -
b1 7
01
1"
12
b0 8
1;
1$
#15600000
0;
0$
#15700000
b1111 5
b1111 -
b11 7
0"
02
b1000 !
b1000 ,
b1000 6
b0 #
b0 )
b0 .
b1 8
1;
1$
#15800000
0;
0$
#15900000
11
b0 7
b1111 !
b1111 ,
b1111 6
b1111 #
b1111 )
b1111 .
b11 8
1;
1$
#16000000
0;
0$
#16100000
b1000 5
b0 -
b1 7
01
1"
12
b0 8
1;
1$
#16200000
0;
0$
#16300000
b1111 5
b1111 -
b11 7
0"
02
b1000 !
b1000 ,
b1000 6
b0 #
b0 )
b0 .
b1 8
1;
1$
#16400000
0;
0$
#16500000
11
b0 7
b1111 !
b1111 ,
b1111 6
b1111 #
b1111 )
b1111 .
b11 8
1;
1$
#16600000
0;
0$
#16700000
b1000 5
b0 -
b1 7
01
1"
12
b0 8
1;
1$
#16800000
0;
0$
#16900000
b1111 5
b1111 -
b11 7
0"
02
b1000 !
b1000 ,
b1000 6
b0 #
b0 )
b0 .
b1 8
1;
1$
#17000000
0;
0$
#17100000
11
b0 7
b1111 !
b1111 ,
b1111 6
b1111 #
b1111 )
b1111 .
b11 8
1;
1$
#17200000
0;
0$
#17300000
b1000 5
b0 -
b1 7
01
1"
12
b0 8
1;
1$
#17400000
0;
0$
#17500000
b1111 5
b1111 -
b11 7
0"
02
b1000 !
b1000 ,
b1000 6
b0 #
b0 )
b0 .
b1 8
1;
1$
#17600000
0;
0$
#17700000
11
b0 7
b1111 !
b1111 ,
b1111 6
b1111 #
b1111 )
b1111 .
b11 8
1;
1$
#17800000
0;
0$
#17900000
b1000 5
b0 -
b1 7
01
1"
12
b0 8
1;
1$
#18000000
0;
0$
#18100000
b1111 5
b1111 -
b11 7
0"
02
b1000 !
b1000 ,
b1000 6
b0 #
b0 )
b0 .
b1 8
1;
1$
#18200000
0;
0$
#18300000
11
b0 7
b1111 !
b1111 ,
b1111 6
b1111 #
b1111 )
b1111 .
b11 8
1;
1$
#18400000
0;
0$
#18500000
b1000 5
b0 -
b1 7
01
1"
12
b0 8
1;
1$
#18600000
0;
0$
#18700000
b1111 5
b1111 -
b11 7
0"
02
b1000 !
b1000 ,
b1000 6
b0 #
b0 )
b0 .
b1 8
1;
1$
#18800000
0;
0$
#18900000
11
b0 7
b1111 !
b1111 ,
b1111 6
b1111 #
b1111 )
b1111 .
b11 8
1;
1$
#19000000
0;
0$
#19100000
b1000 5
b0 -
b1 7
01
1"
12
b0 8
1;
1$
#19200000
0;
0$
#19300000
b1111 5
b1111 -
b11 7
0"
02
b1000 !
b1000 ,
b1000 6
b0 #
b0 )
b0 .
b1 8
1;
1$
#19400000
0;
0$
#19500000
11
b0 7
b1111 !
b1111 ,
b1111 6
b1111 #
b1111 )
b1111 .
b11 8
1;
1$
#19600000
0;
0$
#19700000
b1000 5
b0 -
b1 7
01
1"
12
b0 8
1;
1$
#19800000
0;
0$
#19900000
b1111 5
b1111 -
b11 7
0"
02
b1000 !
b1000 ,
b1000 6
b0 #
b0 )
b0 .
b1 8
1;
1$
#20000000
0;
0$
#20100000
11
b0 7
b1111 !
b1111 ,
b1111 6
b1111 #
b1111 )
b1111 .
b11 8
1;
1$
#20200000
0;
0$
#20300000
b1000 5
b0 -
b1 7
01
1"
12
b0 8
1;
1$
#20400000
0;
0$
#20500000
b1111 5
b1111 -
b11 7
0"
02
b1000 !
b1000 ,
b1000 6
b0 #
b0 )
b0 .
b1 8
1;
1$
#20600000
0;
0$
#20700000
11
b0 7
b1111 !
b1111 ,
b1111 6
b1111 #
b1111 )
b1111 .
b11 8
1;
1$
#20800000
0;
0$
#20900000
b1000 5
b0 -
b1 7
01
1"
12
b0 8
1;
1$
#21000000
0;
0$
#21100000
b1111 5
b1111 -
b11 7
0"
02
b1000 !
b1000 ,
b1000 6
b0 #
b0 )
b0 .
b1 8
1;
1$
#21200000
0;
0$
#21300000
11
b0 7
b1111 !
b1111 ,
b1111 6
b1111 #
b1111 )
b1111 .
b11 8
1;
1$
#21400000
0;
0$
#21500000
b1000 5
b0 -
b1 7
01
1"
12
b0 8
1;
1$
#21600000
0;
0$
#21700000
b1111 5
b1111 -
b11 7
0"
02
b1000 !
b1000 ,
b1000 6
b0 #
b0 )
b0 .
b1 8
1;
1$
#21800000
0;
0$
#21900000
11
b0 7
b1111 !
b1111 ,
b1111 6
b1111 #
b1111 )
b1111 .
b11 8
1;
1$
#22000000
0;
0$
#22100000
b1000 5
b0 -
b1 7
01
1"
12
b0 8
1;
1$
#22200000
0;
0$
#22300000
b1111 5
b1111 -
b11 7
0"
02
b1000 !
b1000 ,
b1000 6
b0 #
b0 )
b0 .
b1 8
1;
1$
#22400000
0;
0$
#22500000
11
b0 7
b1111 !
b1111 ,
b1111 6
b1111 #
b1111 )
b1111 .
b11 8
1;
1$
#22600000
0;
0$
#22700000
b1000 5
b0 -
b1 7
01
1"
12
b0 8
1;
1$
#22800000
0;
0$
#22900000
b1111 5
b1111 -
b11 7
0"
02
b1000 !
b1000 ,
b1000 6
b0 #
b0 )
b0 .
b1 8
1;
1$
#23000000
0;
0$
#23100000
11
b0 7
b1111 !
b1111 ,
b1111 6
b1111 #
b1111 )
b1111 .
b11 8
1;
1$
#23200000
0;
0$
#23300000
b1000 5
b0 -
b1 7
01
1"
12
b0 8
1;
1$
#23400000
0;
0$
#23500000
b1111 5
b1111 -
b11 7
0"
02
b1000 !
b1000 ,
b1000 6
b0 #
b0 )
b0 .
b1 8
1;
1$
#23600000
0;
0$
#23700000
11
b0 7
b1111 !
b1111 ,
b1111 6
b1111 #
b1111 )
b1111 .
b11 8
1;
1$
#23800000
0;
0$
#23900000
b1000 5
b0 -
b1 7
01
1"
12
b0 8
1;
1$
#24000000
0;
0$
#24100000
b1111 5
b1111 -
b11 7
0"
02
b1000 !
b1000 ,
b1000 6
b0 #
b0 )
b0 .
b1 8
1;
1$
#24200000
0;
0$
#24300000
11
b0 7
b1111 !
b1111 ,
b1111 6
b1111 #
b1111 )
b1111 .
b11 8
1;
1$
#24400000
0;
0$
#24500000
b1000 5
b0 -
b1 7
01
1"
12
b0 8
1;
1$
#24600000
0;
0$
#24700000
b1111 5
b1111 -
b11 7
0"
02
b1000 !
b1000 ,
b1000 6
b0 #
b0 )
b0 .
b1 8
1;
1$
#24800000
0;
0$
#24900000
11
b0 7
b1111 !
b1111 ,
b1111 6
b1111 #
b1111 )
b1111 .
b11 8
1;
1$
#25000000
0;
0$
#25100000
b1000 5
b0 -
b1 7
01
1"
12
b0 8
1;
1$
#25200000
0;
0$
#25300000
b1111 5
b1111 -
b11 7
0"
02
b1000 !
b1000 ,
b1000 6
b0 #
b0 )
b0 .
b1 8
1;
1$
#25400000
0;
0$
#25500000
11
b0 7
b1111 !
b1111 ,
b1111 6
b1111 #
b1111 )
b1111 .
b11 8
1;
1$
#25600000
0;
0$
#25700000
b1000 5
b0 -
b1 7
01
1"
12
b0 8
1;
1$
#25800000
0;
0$
#25900000
b1111 5
b1111 -
b11 7
0"
02
b1000 !
b1000 ,
b1000 6
b0 #
b0 )
b0 .
b1 8
1;
1$
#26000000
0;
0$
#26100000
11
b0 7
b1111 !
b1111 ,
b1111 6
b1111 #
b1111 )
b1111 .
b11 8
1;
1$
#26200000
0;
0$
#26300000
b1000 5
b0 -
b1 7
01
1"
12
b0 8
1;
1$
#26400000
0;
0$
#26500000
b1111 5
b1111 -
b11 7
0"
02
b1000 !
b1000 ,
b1000 6
b0 #
b0 )
b0 .
b1 8
1;
1$
#26600000
0;
0$
#26700000
11
b0 7
b1111 !
b1111 ,
b1111 6
b1111 #
b1111 )
b1111 .
b11 8
1;
1$
#26800000
0;
0$
#26900000
b1000 5
b0 -
b1 7
01
1"
12
b0 8
1;
1$
#27000000
0;
0$
#27100000
b1111 5
b1111 -
b11 7
0"
02
b1000 !
b1000 ,
b1000 6
b0 #
b0 )
b0 .
b1 8
1;
1$
#27200000
0;
0$
#27300000
11
b0 7
b1111 !
b1111 ,
b1111 6
b1111 #
b1111 )
b1111 .
b11 8
1;
1$
#27400000
0;
0$
#27500000
b1000 5
b0 -
b1 7
01
1"
12
b0 8
1;
1$
#27600000
0;
0$
#27700000
b1111 5
b1111 -
b11 7
0"
02
b1000 !
b1000 ,
b1000 6
b0 #
b0 )
b0 .
b1 8
1;
1$
#27800000
0;
0$
#27900000
11
b0 7
b1111 !
b1111 ,
b1111 6
b1111 #
b1111 )
b1111 .
b11 8
1;
1$
#28000000
0;
0$
#28100000
b1000 5
b0 -
b1 7
01
1"
12
b0 8
1;
1$
#28200000
0;
0$
#28300000
b1111 5
b1111 -
b11 7
0"
02
b1000 !
b1000 ,
b1000 6
b0 #
b0 )
b0 .
b1 8
1;
1$
#28400000
0;
0$
#28500000
11
b0 7
b1111 !
b1111 ,
b1111 6
b1111 #
b1111 )
b1111 .
b11 8
1;
1$
#28600000
0;
0$
#28700000
b1000 5
b0 -
b1 7
01
1"
12
b0 8
1;
1$
#28800000
0;
0$
#28900000
b1111 5
b1111 -
b11 7
0"
02
b1000 !
b1000 ,
b1000 6
b0 #
b0 )
b0 .
b1 8
1;
1$
#29000000
0;
0$
#29100000
11
b0 7
b1111 !
b1111 ,
b1111 6
b1111 #
b1111 )
b1111 .
b11 8
1;
1$
#29200000
0;
0$
#29300000
b1000 5
b0 -
b1 7
01
1"
12
b0 8
1;
1$
#29400000
0;
0$
#29500000
b1111 5
b1111 -
b11 7
0"
02
b1000 !
b1000 ,
b1000 6
b0 #
b0 )
b0 .
b1 8
1;
1$
#29600000
0;
0$
#29700000
11
b0 7
b1111 !
b1111 ,
b1111 6
b1111 #
b1111 )
b1111 .
b11 8
1;
1$
#29800000
0;
0$
#29900000
b1000 5
b0 -
b1 7
01
1"
12
b0 8
1;
1$
#30000000
0;
0$
#30100000
b1111 5
b1111 -
b11 7
0"
02
b1000 !
b1000 ,
b1000 6
b0 #
b0 )
b0 .
b1 8
1;
1$
#30200000
0;
0$
#30300000
11
b0 7
b1111 !
b1111 ,
b1111 6
b1111 #
b1111 )
b1111 .
b11 8
1;
1$
#30400000
0;
0$
#30500000
b1000 5
b0 -
b1 7
01
1"
12
b0 8
1;
1$
#30600000
0;
0$
#30700000
b1111 5
b1111 -
b11 7
0"
02
b1000 !
b1000 ,
b1000 6
b0 #
b0 )
b0 .
b1 8
1;
1$
#30800000
0;
0$
#30900000
11
b0 7
b1111 !
b1111 ,
b1111 6
b1111 #
b1111 )
b1111 .
b11 8
1;
1$
#31000000
0;
0$
#31100000
b1000 5
b0 -
b1 7
01
1"
12
b0 8
1;
1$
#31200000
0;
0$
#31300000
b1111 5
b1111 -
b11 7
0"
02
b1000 !
b1000 ,
b1000 6
b0 #
b0 )
b0 .
b1 8
1;
1$
#31400000
0;
0$
#31500000
11
b0 7
b1111 !
b1111 ,
b1111 6
b1111 #
b1111 )
b1111 .
b11 8
1;
1$
#31600000
0;
0$
#31700000
b1000 5
b0 -
b1 7
01
1"
12
b0 8
1;
1$
#31800000
0;
0$
#31900000
b1111 5
b1111 -
b11 7
0"
02
b1000 !
b1000 ,
b1000 6
b0 #
b0 )
b0 .
b1 8
1;
1$
#32000000
0;
0$
#32100000
11
b0 7
b1111 !
b1111 ,
b1111 6
b1111 #
b1111 )
b1111 .
b11 8
1;
1$
#32200000
0;
0$
#32300000
b1000 5
b0 -
b1 7
01
1"
12
b0 8
1;
1$
#32400000
0;
0$
#32500000
b1111 5
b1111 -
b11 7
0"
02
b1000 !
b1000 ,
b1000 6
b0 #
b0 )
b0 .
b1 8
1;
1$
#32600000
0;
0$
#32700000
11
b0 7
b1111 !
b1111 ,
b1111 6
b1111 #
b1111 )
b1111 .
b11 8
1;
1$
#32800000
0;
0$
#32900000
b1000 5
b0 -
b1 7
01
1"
12
b0 8
1;
1$
#33000000
0;
0$
#33100000
b1111 5
b1111 -
b11 7
0"
02
b1000 !
b1000 ,
b1000 6
b0 #
b0 )
b0 .
b1 8
1;
1$
#33200000
0;
0$
#33300000
11
b0 7
b1111 !
b1111 ,
b1111 6
b1111 #
b1111 )
b1111 .
b11 8
1;
1$
#33400000
0;
0$
#33500000
b1000 5
b0 -
b1 7
01
1"
12
b0 8
1;
1$
#33600000
0;
0$
#33700000
b1111 5
b1111 -
b11 7
0"
02
b1000 !
b1000 ,
b1000 6
b0 #
b0 )
b0 .
b1 8
1;
1$
#33800000
0;
0$
#33900000
11
b0 7
b1111 !
b1111 ,
b1111 6
b1111 #
b1111 )
b1111 .
b11 8
1;
1$
#34000000
0;
0$
#34100000
b1000 5
b0 -
b1 7
01
1"
12
b0 8
1;
1$
#34200000
0;
0$
#34300000
b1111 5
b1111 -
b11 7
0"
02
b1000 !
b1000 ,
b1000 6
b0 #
b0 )
b0 .
b1 8
1;
1$
#34400000
0;
0$
#34500000
11
b0 7
b1111 !
b1111 ,
b1111 6
b1111 #
b1111 )
b1111 .
b11 8
1;
1$
#34600000
0;
0$
#34700000
b1000 5
b0 -
b1 7
01
1"
12
b0 8
1;
1$
#34800000
0;
0$
#34900000
b1111 5
b1111 -
b11 7
0"
02
b1000 !
b1000 ,
b1000 6
b0 #
b0 )
b0 .
b1 8
1;
1$
#35000000
0;
0$
#35100000
11
b0 7
b1111 !
b1111 ,
b1111 6
b1111 #
b1111 )
b1111 .
b11 8
1;
1$
#35200000
0;
0$
#35300000
b1000 5
b0 -
b1 7
01
1"
12
b0 8
1;
1$
#35400000
0;
0$
#35500000
b1111 5
b1111 -
b11 7
0"
02
b1000 !
b1000 ,
b1000 6
b0 #
b0 )
b0 .
b1 8
1;
1$
#35600000
0;
0$
#35700000
11
b0 7
b1111 !
b1111 ,
b1111 6
b1111 #
b1111 )
b1111 .
b11 8
1;
1$
#35800000
0;
0$
#35900000
b1000 5
b0 -
b1 7
01
1"
12
b0 8
1;
1$
#36000000
0;
0$
#36100000
b1111 5
b1111 -
b11 7
0"
02
b1000 !
b1000 ,
b1000 6
b0 #
b0 )
b0 .
b1 8
1;
1$
#36200000
0;
0$
#36300000
11
b0 7
b1111 !
b1111 ,
b1111 6
b1111 #
b1111 )
b1111 .
b11 8
1;
1$
#36400000
0;
0$
#36500000
b1000 5
b0 -
b1 7
01
1"
12
b0 8
1;
1$
#36600000
0;
0$
#36700000
b1111 5
b1111 -
b11 7
0"
02
b1000 !
b1000 ,
b1000 6
b0 #
b0 )
b0 .
b1 8
1;
1$
#36800000
0;
0$
#36900000
11
b0 7
b1111 !
b1111 ,
b1111 6
b1111 #
b1111 )
b1111 .
b11 8
1;
1$
#37000000
0;
0$
#37100000
b1000 5
b0 -
b1 7
01
1"
12
b0 8
1;
1$
#37200000
0;
0$
